{
  "_class": "shapePath",
  "booleanOperation": 1,
  "do_objectID": "E24CC2AE-ED8B-423A-8BA6-142AC657E866",
  "edited": true,
  "exportOptions": {
    "_class": "exportOptions",
    "exportFormats": [
    ],
    "includedLayerIds": [
    ],
    "layerOptions": 0,
    "shouldTrim": false
  },
  "frame": {
    "_class": "rect",
    "constrainProportions": false,
    "height": 16,
    "width": 16,
    "x": 0,
    "y": 0
  },
  "isFlippedHorizontal": false,
  "isFlippedVertical": false,
  "isLocked": false,
  "isVisible": true,
  "layerListExpandedType": 0,
  "name": "Shape",
  "nameIsFixed": false,
  "path": {
    "_class": "path",
    "isClosed": true,
    "pointRadiusBehaviour": 0,
    "points": [
      {
        "_class": "curvePoint",
        "cornerRadius": 0,
        "curveFrom": "{-3.3817687554908895e-17, 0.22385762508460341}",
        "curveMode": 4,
        "curveTo": "{0, 0.50000000000000011}",
        "hasCurveFrom": true,
        "hasCurveTo": false,
        "point": "{0, 0.50000000000000011}"
      },
      {
        "_class": "curvePoint",
        "cornerRadius": 0,
        "curveFrom": "{0.77614237491539662, -5.0726531332363349e-17}",
        "curveMode": 2,
        "curveTo": "{0.22385762508460316, 5.0726531332363349e-17}",
        "hasCurveFrom": true,
        "hasCurveTo": true,
        "point": "{0.49999999999999989, 0}"
      },
      {
        "_class": "curvePoint",
        "cornerRadius": 0,
        "curveFrom": "{1, 0.77614237491539673}",
        "curveMode": 2,
        "curveTo": "{0.99999999999999989, 0.22385762508460319}",
        "hasCurveFrom": true,
        "hasCurveTo": true,
        "point": "{1, 0.49999999999999994}"
      },
      {
        "_class": "curvePoint",
        "cornerRadius": 0,
        "curveFrom": "{0.22385762508460325, 1}",
        "curveMode": 2,
        "curveTo": "{0.77614237491539673, 1}",
        "hasCurveFrom": true,
        "hasCurveTo": true,
        "point": "{0.5, 1}"
      },
      {
        "_class": "curvePoint",
        "cornerRadius": 0,
        "curveFrom": "{0, 0.5}",
        "curveMode": 4,
        "curveTo": "{3.3817687554908895e-17, 0.77614237491539673}",
        "hasCurveFrom": false,
        "hasCurveTo": true,
        "point": "{0, 0.5}"
      }
    ]
  },
  "resizingConstraint": 63,
  "resizingType": 0,
  "rotation": 0,
  "shouldBreakMaskChain": false
}