{
  "_class": "group",
  "do_objectID": "C3C0E199-F149-406D-B88C-F62F7C7DCC5F",
  "exportOptions": {
    "_class": "exportOptions",
    "exportFormats": [
    ],
    "includedLayerIds": [
    ],
    "layerOptions": 0,
    "shouldTrim": false
  },
  "frame": {
    "_class": "rect",
    "constrainProportions": false,
    "height": 28,
    "width": 527,
    "x": 607,
    "y": 1552
  },
  "hasClickThrough": false,
  "isFlippedHorizontal": false,
  "isFlippedVertical": false,
  "isLocked": false,
  "isVisible": true,
  "layerListExpandedType": 2,
  "layers": [
    {
      "class": "shapeGroup",
      "id": "5F9C3EC1-4DFB-46D6-BFC6-67639F6C380B"
    },
    {
      "class": "shapeGroup",
      "id": "E5CCB042-DD0C-4A87-BB6E-7B0D6E2575BA"
    },
    {
      "class": "shapeGroup",
      "id": "AE85F8BE-1E59-41E0-A85C-A575DCD4D911"
    },
    {
      "class": "shapeGroup",
      "id": "D0B11E21-E95A-4490-96C3-92C6C9541080"
    },
    {
      "class": "text",
      "id": "12F0D03B-AC96-4A97-924E-8EEF396EF04E"
    }
  ],
  "name": "new_epic copy 22",
  "nameIsFixed": true,
  "resizingConstraint": 63,
  "resizingType": 0,
  "rotation": 0,
  "shouldBreakMaskChain": false,
  "style": {
    "_class": "style",
    "endDecorationType": 0,
    "miterLimit": 10,
    "startDecorationType": 0
  }
}