{
  "_class": "shapePath",
  "booleanOperation": -1,
  "do_objectID": "ED97CF70-0E2E-4F71-BB40-85D93E57AE9E",
  "edited": true,
  "exportOptions": {
    "_class": "exportOptions",
    "exportFormats": [
    ],
    "includedLayerIds": [
    ],
    "layerOptions": 0,
    "shouldTrim": false
  },
  "frame": {
    "_class": "rect",
    "constrainProportions": false,
    "height": 5.123495131111298,
    "width": 10.24674086046957,
    "x": 2.87662956976638,
    "y": 1.882696878888795
  },
  "isFlippedHorizontal": false,
  "isFlippedVertical": false,
  "isLocked": false,
  "isVisible": true,
  "layerListExpandedType": 0,
  "name": "Shape",
  "nameIsFixed": false,
  "path": {
    "_class": "path",
    "isClosed": true,
    "pointRadiusBehaviour": 1,
    "points": [
      {
        "_class": "curvePoint",
        "cornerRadius": 0,
        "curveFrom": "{0.50000000000000011, 1.5409245220675968e-16}",
        "curveMode": 1,
        "curveTo": "{0.50000000000000011, 1.5409245220675968e-16}",
        "hasCurveFrom": false,
        "hasCurveTo": false,
        "point": "{0.50000000000000011, 1.5409245220675968e-16}"
      },
      {
        "_class": "curvePoint",
        "cornerRadius": 0,
        "curveFrom": "{0, 0.5}",
        "curveMode": 1,
        "curveTo": "{0, 0.5}",
        "hasCurveFrom": false,
        "hasCurveTo": false,
        "point": "{0, 0.5}"
      },
      {
        "_class": "curvePoint",
        "cornerRadius": 0,
        "curveFrom": "{0.50000000000000022, 1}",
        "curveMode": 1,
        "curveTo": "{0.50000000000000022, 1}",
        "hasCurveFrom": false,
        "hasCurveTo": false,
        "point": "{0.50000000000000022, 1}"
      },
      {
        "_class": "curvePoint",
        "cornerRadius": 0,
        "curveFrom": "{1, 0.49999999999999983}",
        "curveMode": 1,
        "curveTo": "{1, 0.49999999999999983}",
        "hasCurveFrom": false,
        "hasCurveTo": false,
        "point": "{1, 0.49999999999999983}"
      }
    ]
  },
  "resizingConstraint": 63,
  "resizingType": 0,
  "rotation": 0,
  "shouldBreakMaskChain": false
}