{
  "_class": "shapePath",
  "booleanOperation": -1,
  "do_objectID": "86B97EB0-A649-4D8D-A54F-80B5055F5D00",
  "edited": true,
  "exportOptions": {
    "_class": "exportOptions",
    "exportFormats": [
    ],
    "includedLayerIds": [
    ],
    "layerOptions": 0,
    "shouldTrim": false
  },
  "frame": {
    "_class": "rect",
    "constrainProportions": false,
    "height": 16,
    "width": 16.00000000000014,
    "x": 0,
    "y": 0
  },
  "isFlippedHorizontal": false,
  "isFlippedVertical": false,
  "isLocked": false,
  "isVisible": true,
  "layerListExpandedType": 0,
  "name": "Path",
  "nameIsFixed": false,
  "path": {
    "_class": "path",
    "isClosed": true,
    "pointRadiusBehaviour": 0,
    "points": [
      {
        "_class": "curvePoint",
        "cornerRadius": 0,
        "curveFrom": "{1, 0.59071225911458336}",
        "curveMode": 2,
        "curveTo": "{1, 0.4092877408854167}",
        "hasCurveFrom": true,
        "hasCurveTo": true,
        "point": "{1, 0.50000000000000011}"
      },
      {
        "_class": "curvePoint",
        "cornerRadius": 0,
        "curveFrom": "{0.88823762369790404, 0.82758284830729167}",
        "curveMode": 2,
        "curveTo": "{0.97764779296875537, 0.67437027669270833}",
        "hasCurveFrom": true,
        "hasCurveTo": true,
        "point": "{0.93294270833332971, 0.7509765625}"
      },
      {
        "_class": "curvePoint",
        "cornerRadius": 0,
        "curveFrom": "{0.67437027669271243, 0.97764779296875004}",
        "curveMode": 2,
        "curveTo": "{0.82758284830729589, 0.8882376236979167}",
        "hasCurveFrom": true,
        "hasCurveTo": true,
        "point": "{0.75097656249998945, 0.93294270833333326}"
      },
      {
        "_class": "curvePoint",
        "cornerRadius": 0,
        "curveFrom": "{0.40928774088540387, 1}",
        "curveMode": 2,
        "curveTo": "{0.5907122591145666, 1}",
        "hasCurveFrom": true,
        "hasCurveTo": true,
        "point": "{0.5, 1}"
      },
      {
        "_class": "curvePoint",
        "cornerRadius": 0,
        "curveFrom": "{0.17241715169270405, 0.8882376236979167}",
        "curveMode": 2,
        "curveTo": "{0.32562972330728751, 0.97764779296875004}",
        "hasCurveFrom": true,
        "hasCurveTo": true,
        "point": "{0.24902343750001055, 0.93294270833333326}"
      },
      {
        "_class": "curvePoint",
        "cornerRadius": 0,
        "curveFrom": "{0.022352207031244669, 0.67437027669270833}",
        "curveMode": 2,
        "curveTo": "{0.11176237630209596, 0.82758284830729167}",
        "hasCurveFrom": true,
        "hasCurveTo": true,
        "point": "{0.067057291666670307, 0.7509765625}"
      },
      {
        "_class": "curvePoint",
        "cornerRadius": 0,
        "curveFrom": "{0, 0.4092877408854167}",
        "curveMode": 2,
        "curveTo": "{0, 0.59071225911458336}",
        "hasCurveFrom": true,
        "hasCurveTo": true,
        "point": "{0, 0.50000000000000011}"
      },
      {
        "_class": "curvePoint",
        "cornerRadius": 0,
        "curveFrom": "{0.11176237630209596, 0.1724171516927083}",
        "curveMode": 2,
        "curveTo": "{0.022352207031244669, 0.32562972330729167}",
        "hasCurveFrom": true,
        "hasCurveTo": true,
        "point": "{0.067057291666670307, 0.24902343750000011}"
      },
      {
        "_class": "curvePoint",
        "cornerRadius": 0,
        "curveFrom": "{0.32562972330728751, 0.022352207031250154}",
        "curveMode": 2,
        "curveTo": "{0.17241715169270405, 0.11176237630208333}",
        "hasCurveFrom": true,
        "hasCurveTo": true,
        "point": "{0.24902343750001055, 0.067057291666666741}"
      },
      {
        "_class": "curvePoint",
        "cornerRadius": 0,
        "curveFrom": "{0.5907122591145666, 0}",
        "curveMode": 2,
        "curveTo": "{0.40928774088540387, 0}",
        "hasCurveFrom": true,
        "hasCurveTo": true,
        "point": "{0.5, 0}"
      },
      {
        "_class": "curvePoint",
        "cornerRadius": 0,
        "curveFrom": "{0.82758284830729589, 0.11176237630208333}",
        "curveMode": 2,
        "curveTo": "{0.67437027669271243, 0.022352207031250154}",
        "hasCurveFrom": true,
        "hasCurveTo": true,
        "point": "{0.75097656249998945, 0.067057291666666741}"
      },
      {
        "_class": "curvePoint",
        "cornerRadius": 0,
        "curveFrom": "{0.97764779296875537, 0.32562972330729167}",
        "curveMode": 2,
        "curveTo": "{0.88823762369790404, 0.1724171516927083}",
        "hasCurveFrom": true,
        "hasCurveTo": true,
        "point": "{0.93294270833332971, 0.24902343750000011}"
      }
    ]
  },
  "resizingConstraint": 63,
  "resizingType": 0,
  "rotation": 0,
  "shouldBreakMaskChain": false
}