{
  "_class": "group",
  "do_objectID": "D51AFBD6-372F-4672-81CD-FFC6ECE48283",
  "exportOptions": {
    "_class": "exportOptions",
    "exportFormats": [
    ],
    "includedLayerIds": [
    ],
    "layerOptions": 0,
    "shouldTrim": false
  },
  "frame": {
    "_class": "rect",
    "constrainProportions": false,
    "height": 625,
    "width": 1448,
    "x": 11,
    "y": 0
  },
  "hasClickThrough": false,
  "isFlippedHorizontal": false,
  "isFlippedVertical": false,
  "isLocked": false,
  "isVisible": true,
  "layerListExpandedType": 2,
  "layers": [
    {
      "class": "shapeGroup",
      "id": "29529814-D76B-4648-B9A3-AFD1FB9B14E5"
    },
    {
      "class": "shapeGroup",
      "id": "6D74D863-6BF4-4431-9CEB-C4E16FCCCE33"
    },
    {
      "class": "shapeGroup",
      "id": "A0AA067C-8FA9-4DB2-9A0A-ABDECBE8990E"
    }
  ],
  "name": "timeline-unit-weekendday-bg",
  "nameIsFixed": true,
  "resizingConstraint": 63,
  "resizingType": 0,
  "rotation": 0,
  "shouldBreakMaskChain": false,
  "style": {
    "_class": "style",
    "endDecorationType": 0,
    "miterLimit": 10,
    "startDecorationType": 0
  }
}