<?xml version="1.0" encoding="UTF-8"?>
<svg width="16px" height="16px" viewBox="0 0 16 16" version="1.1" xmlns="http://www.w3.org/2000/svg" xmlns:xlink="http://www.w3.org/1999/xlink">
    <!-- Generator: Sketch 61.2 (89653) - https://sketch.com -->
    <title>icn/file-modified-solid</title>
    <desc>Created with Sketch.</desc>
    <g id="icn/file-modified-solid" stroke="none" stroke-width="1" fill="none" fill-rule="evenodd">
        <path d="M4,2 C2.89543,2 2,2.89543 2,4 L2,12 C2,13.1046 2.89543,14 4,14 L12,14 C13.1046,14 14,13.1046 14,12 L14,4 C14,2.89543 13.1046,2 12,2 L4,2 Z M8,10 C9.10457,10 10,9.10457 10,8 C10,6.89543 9.10457,6 8,6 C6.89543,6 6,6.89543 6,8 C6,9.10457 6.89543,10 8,10 Z" id="icon" fill="#000000"></path>
    </g>
</svg>